<?xml version='1.0' encoding='UTF-8'?>
<!-- Created with Inkscape (http://www.inkscape.org/) and export_objects.py -->
<svg xmlns:cc="http://creativecommons.org/ns#" xmlns:dc="http://purl.org/dc/elements/1.1/" xmlns:inkscape="http://www.inkscape.org/namespaces/inkscape" xmlns:rdf="http://www.w3.org/1999/02/22-rdf-syntax-ns#" xmlns:sodipodi="http://sodipodi.sourceforge.net/DTD/sodipodi-0.dtd" xmlns:xlink="http://www.w3.org/1999/xlink" xmlns="http://www.w3.org/2000/svg" version="1.1" id="svg1" width="16" height="16" viewBox="0 0 16 16" sodipodi:docname="distribute-remove-overlaps-symbolic.svg">
<style id="style0001">
.success{fill:#33d17a}
.warning{fill:#f57900}
.danger{fill:#cc0000}
</style><sodipodi:namedview objecttolerance="10" gridtolerance="10" guidetolerance="10" id="namedview" showgrid="true" inkscape:zoom="0.6002936" inkscape:cx="732.67439" inkscape:cy="-567.94603" inkscape:window-width="1920" inkscape:window-height="1016" inkscape:window-x="0" inkscape:window-y="27" inkscape:window-maximized="1" inkscape:current-layer="layer1">
    <inkscape:grid type="xygrid" id="grid"/>
  </sodipodi:namedview>
  <g transform="matrix(0.727273,0,0,0.666667,-840.72727,-548.90812)" inkscape:label="00292" id="distribute-remove-overlaps">
      <path inkscape:connector-curvature="0" id="rect19455" d="m 1156,823.36218 h 22 v 24 h -22 z" style="opacity:0;fill:none"/>
      <path inkscape:connector-curvature="0" id="rect19457" d="m 1157,824.36218 h 5 v 5 h -5 z" style="opacity:1"/>
      <path inkscape:connector-curvature="0" id="rect19459" d="m 1157,832.36218 h 5 v 14 h -5 z" style="opacity:1"/>
      <path inkscape:connector-curvature="0" id="rect19461" d="m 1165,824.36218 h 5 v 22 h -5 z" style="opacity:1"/>
      <path inkscape:connector-curvature="0" id="rect19463" d="m 1173,824.36218 h 5 v 22 h -5 z" style="opacity:1"/>
    </g>
    </svg>
